…
This is a basic example which shows you how to solve a common problem:


```r
library(PRmixer)

## basic example code
assign_reviewer(seed = 2021,
                dataset = PRmixer::students,
                groups_rw = 30,
                reviewers = 4)
#> # A tibble: 116 x 6
#>     name surname     preferred_name lab   group_num group_to_review
#>    <dbl> <chr>       <chr>          <chr>     <dbl>           <int>
#>  1     1 Riley       My-Phuong      L01           1               8
#>  2     2 Thompson    Leon           L01           1               7
#>  3     3 Cordero     Claudio        L01           1              15
#>  4     4 el-Nasser   Zaid           L01           1              27
#>  5     5 Lomeli      Lauren         L01           2               8
#>  6     6 Maestas     Shriya         L01           2              13
#>  7     7 Acosta      Jacqueline     L01           2              21
#>  8     8 Simmons     Alyssa         L01           2               7
#>  9     9 Dilka-Garza Carolina       L01           3               7
#> 10    10 Delong      Tiffany        L01           3              28
#> # ... with 106 more rows
```
…
